{
  "goal": 90,
  "ladders": [
    [1, 40],
    [8, 10],
    [36, 52],
    [43, 62],
    [49, 79],
    [65, 82],
    [68, 85]
  ],
  "chutes": [
    [24, 5],
    [33, 3],
    [42, 30],
    [56, 37],
    [64, 27],
    [74, 12],
    [87, 70]
  ]
}